{
    "data": [
        {
            "id": 1,
            "title": "Quo dicta tempore et.",
            "body": "Aut quos eum vero quia hic harum dolor quos. Consequatur perspiciatis ducimus porro vel culpa natus et. Et necessitatibus harum aut cumque deleniti soluta iusto. Iure qui consequuntur quis numquam."
        },
        {
            "id": 2,
            "title": "Debitis quos vel corrupti.",
            "body": "Et cupiditate sint dolorem et. Natus nulla minima a et omnis. Et vel nihil id nihil accusamus officiis vel. Et cumque est dolore minus harum."
        },
        {
            "id": 3,
            "title": "Nemo dolor at suscipit.",
            "body": "Ut autem temporibus dolores non. Molestiae in qui eligendi ipsa. Tempora officia magni sit ipsam voluptates magnam eius."
        },
        {
            "id": 4,
            "title": "Illum dolor eum enim.",
            "body": "Non est dicta beatae debitis autem. Saepe veritatis et eius ipsum ipsum unde. Velit dicta possimus molestiae dolores. Atque doloremque itaque vero assumenda. Earum quis inventore enim illo error."
        },
        {
            "id": 5,
            "title": "Quo ut esse magnam.",
            "body": "Minus quis et minima accusantium laudantium. Et id numquam vitae. Autem ex sunt eveniet quasi autem et quis. Totam magni doloribus qui consequatur quisquam."
        },
        {
            "id": 6,
            "title": "Odio molestiae velit rerum.",
            "body": "Error dolor aut incidunt non eius. Optio quod qui nihil ad iure sed. Vel quo quaerat dignissimos harum nobis."
        },
        {
            "id": 7,
            "title": "Qui vitae quis quia unde.",
            "body": "Blanditiis enim quia esse. Officiis alias officia odio ut quia fugiat laboriosam. Incidunt ut atque qui itaque sit ut."
        },
        {
            "id": 8,
            "title": "Voluptate ea sed eius.",
            "body": "Temporibus id dolores vitae rem. Dolorum beatae quod aperiam odit consectetur perspiciatis dolore. Reprehenderit doloremque illum maiores officia."
        },
        {
            "id": 9,
            "title": "Explicabo fugit quia qui et.",
            "body": "Nihil sint ea omnis. Voluptatibus nesciunt non dolor doloribus minima. Assumenda exercitationem consequuntur dolorem sit. Quasi quod voluptatem deserunt et sint. Sit error maxime nam consequatur."
        },
        {
            "id": 10,
            "title": "Sed et rerum iste et ducimus.",
            "body": "Eius dolor velit ratione doloremque. Sit qui excepturi est autem aut et est nihil. Consequatur iure incidunt rem. Animi quos aut distinctio mollitia ipsum placeat."
        },
        {
            "id": 11,
            "title": "Eos dicta laudantium quod et.",
            "body": "Amet ut sint amet sunt nihil expedita. Autem magni et cupiditate est minima. Id tempora deleniti voluptates incidunt."
        },
        {
            "id": 12,
            "title": "Sint beatae ducimus et at.",
            "body": "Commodi quam facere non omnis tempora odit. Sed at culpa ad pariatur quos. Ut voluptas temporibus eum quidem voluptas quibusdam neque. Enim et nobis dolores nihil deserunt."
        },
        {
            "id": 13,
            "title": "Soluta id qui quasi pariatur.",
            "body": "Labore architecto autem quia dicta. Cum qui enim saepe. Et sit impedit consequatur."
        },
        {
            "id": 14,
            "title": "Vel natus ullam eius nobis.",
            "body": "Cumque eius beatae non qui aperiam saepe. Eos deserunt corrupti tempore et aut voluptas id. Quod qui magnam et."
        },
        {
            "id": 15,
            "title": "Odio nam adipisci aut ut.",
            "body": "Et dolorum quaerat impedit voluptatem voluptatem tenetur fugiat. Est voluptatum est et nisi occaecati. Voluptatem repudiandae inventore sed non reprehenderit."
        }
    ],
    "links": {
        "first": "http://localhost/ihvnapi/public/api/articles?page=1",
        "last": "http://localhost/ihvnapi/public/api/articles?page=2",
        "prev": null,
        "next": "http://localhost/ihvnapi/public/api/articles?page=2"
    },
    "meta": {
        "current_page": 1,
        "from": 1,
        "last_page": 2,
        "path": "http://localhost/ihvnapi/public/api/articles",
        "per_page": 15,
        "to": 15,
        "total": 30
    }
}
